Xenobiotics disrupt vertical energy transfer from photoautotrophic biofilms to grazers
…
1) Total SAFA content

# total SAFA, MUFA, PUFA content; sa = "snail absolute" 
# total SAFA content 
# filter saturated fatty acids in new table 
SAFA_sa <- FA_Snails_absolute %>%
filter(fa %in% c("C12:0", "C13:0", "C14:0", "C15:0", "C16:0", "C18:0", "C20:0"))

# Sum SAFA per replicate and treatment
total_SAFA_per_snail <- SAFA_sa %>% 
  dplyr::group_by(replicate, treatment) %>% 
  dplyr::summarize(sum_SAFA = sum(fa_conc), .groups = "drop") 
print(total_SAFA_per_snail) 

# A tibble: 39 × 3
   replicate treatment sum_SAFA
   <chr>     <chr>        <dbl>
 1 S_1       NC           287. 
 2 S_10      NC           102. 
 3 S_11      Pro          177. 
 4 S_12      Pro          171. 
 5 S_13      Pro          131. 
 6 S_14      Pro          128. 
 7 S_15      Pro           92.6
 8 S_16      Pro          102. 
 9 S_17      Pro          128. 
10 S_18      Pro          122. 
# ℹ 29 more rows
…
2) Total MUFA content

# filter mono-unsaturated fatty acids in new table
MUFA_sa <- FA_Snails_absolute %>%
  filter(fa %in% c("C16:1", "C18:1", "C20:1", "C22:1"))

# Sum MUFA per replicate and treatment
total_MUFA_per_snail <- MUFA_sa %>% 
  dplyr::group_by(replicate, treatment) %>% 
  dplyr::summarize(sum_MUFA = sum(fa_conc), .groups = "drop") 
print(total_MUFA_per_snail) 

# A tibble: 39 × 3
   replicate treatment sum_MUFA
   <chr>     <chr>        <dbl>
 1 S_1       NC           189. 
 2 S_10      NC           109. 
 3 S_11      Pro          179. 
 4 S_12      Pro           33.0
 5 S_13      Pro           55.4
 6 S_14      Pro          143. 
 7 S_15      Pro           48.8
 8 S_16      Pro           33.2
 9 S_17      Pro          149. 
10 S_18      Pro          140. 
# ℹ 29 more rows
…
3) Total PUFA content

# filter poly-unsaturated fatty acids in new table
PUFA_sa <- FA_Snails_absolute %>%
  filter(fa %in% c("C18:2(n-6c)", "C18:3(n-3)", "C18:3(n-6)", "C18:4(n-3)", "C20:2(n-6)", "C20:3(n-6)", "C20:4(n-6)", "C20:5(n-3)", "C22:5(n-3)", "C22:6(n-3)"))
  
# Sum PUFA per replicate and treatment
total_PUFA_per_snail <- PUFA_sa %>% 
  dplyr::group_by(replicate, treatment) %>% 
  dplyr::summarize(sum_PUFA = sum(fa_conc), .groups = "drop") 
print(total_PUFA_per_snail) 

# A tibble: 39 × 3
   replicate treatment sum_PUFA
   <chr>     <chr>        <dbl>
 1 S_1       NC           117. 
 2 S_10      NC            57.8
 3 S_11      Pro           68.5
 4 S_12      Pro           62.2
 5 S_13      Pro           39.1
 6 S_14      Pro           45.1
 7 S_15      Pro           44.7
 8 S_16      Pro           51.1
 9 S_17      Pro           68.3
10 S_18      Pro          106. 
# ℹ 29 more rows
…
4) Total FA per snail

# total FA 
total_FA_snails <- bind_rows(total_SAFA_per_snail, total_MUFA_per_snail, total_PUFA_per_snail)

total_FA_per_snail <- total_FA_snails %>%
  dplyr::group_by(replicate, treatment) %>%
  dplyr::summarize(sum_FA = sum(sum_SAFA, sum_MUFA, sum_PUFA, na.rm = TRUE))

`summarise()` has grouped output by 'replicate'. You can override using the
`.groups` argument.

print(total_FA_per_snail)

# A tibble: 39 × 3
# Groups:   replicate [39]
   replicate treatment sum_FA
   <chr>     <chr>      <dbl>
 1 S_1       NC          594.
 2 S_10      NC          269.
 3 S_11      Pro         425.
 4 S_12      Pro         266.
 5 S_13      Pro         225.
 6 S_14      Pro         316.
 7 S_15      Pro         186.
 8 S_16      Pro         187.
 9 S_17      Pro         345.
10 S_18      Pro         368.
# ℹ 29 more rows
…
